5 Tipos de datos – Taller de Introducción a R
…
los tibbles nunca cambian las columnas caracter en factores como hacen los Data Frame por defecto

los tibbles tienen más flexibilidad a la hora de nombrar a las columnas.

los métodos de representación que tienen los tibbles son más convenientes que los de los Data Frame cuando se trabaja con grandes cantidades de datos.

Para crear un tibble utilizamos la función tibble() de R. Su funcionamiento es muy similar al de la función data.frame(). Como se puede observar en el siguiente ejemplo, los valores de cada columna se calculan secuencialmente permitiendonos usar los valores de la columna anterior, y los vectores de caracteres no se convierten en factores.

library(tibble)
dat = tibble(TempCels = sample(-10:40, size=100, replace=TRUE),
             TempFahr = TempCels*9/5+32,
             Location =rep(letters[1:2], each=50))
dat

# A tibble: 100 × 3
   TempCels TempFahr Location
      <int>    <dbl> <chr>   
 1       25     77   a       
 2        4     39.2 a       
 3       -5     23   a       
 4       -4     24.8 a       
 5       17     62.6 a       
 6        2     35.6 a       
 7       24     75.2 a       
 8        1     33.8 a       
 9       12     53.6 a       
10       16     60.8 a       
# ℹ 90 more rows
…
[1] "data.frame"

library(tibble)
# Convertimos el Data Frame a tibble
ir = as_tibble(iris)
# No hemos creado una nueva copia del Data Frame. El nuevo objeto es todavía de la clase
# data.frame pero también pertenece a las clases tbl_df (la clase de los tibble) y tbl
# (es una generealización de la anterior).
class(ir)

[1] "tbl_df"     "tbl"        "data.frame"

ir

# A tibble: 150 × 5
   Sepal.Length Sepal.Width Petal.Length Petal.Width Species
          <dbl>       <dbl>        <dbl>       <dbl> <fct>  
 1          5.1         3.5          1.4         0.2 setosa 
 2          4.9         3            1.4         0.2 setosa 
 3          4.7         3.2          1.3         0.2 setosa 
 4          4.6         3.1          1.5         0.2 setosa 
 5          5           3.6          1.4         0.2 setosa 
 6          5.4         3.9          1.7         0.4 setosa 
 7          4.6         3.4          1.4         0.3 setosa 
 8          5           3.4          1.5         0.2 setosa 
 9          4.4         2.9          1.4         0.2 setosa 
10          4.9         3.1          1.5         0.1 setosa 
# ℹ 140 more rows
…
Adjuntando el paquete: 'dplyr'

The following objects are masked from 'package:stats':

    filter, lag

The following objects are masked from 'package:base':

    intersect, setdiff, setequal, union

# Nos quedamos con las filas de la especie "setosa", de la cual solo queremos las columnas
# que se llaman Petal.Width y Petal.Length
select(filter(ir, Species=="setosa"), Petal.Width,Petal.Length)

# A tibble: 50 × 2
   Petal.Width Petal.Length
         <dbl>        <dbl>
 1         0.2          1.4
 2         0.2          1.4
 3         0.2          1.3
 4         0.2          1.5
 5         0.2          1.4
 6         0.4          1.7
 7         0.3          1.4
 8         0.2          1.5
 9         0.2          1.4
10         0.1          1.5
# ℹ 40 more rows

# Podemos hacer lo mismo utilizando el operador pipe:
filter(ir, Species=="setosa") |> select(Petal.Width, Petal.Length)

# A tibble: 50 × 2
   Petal.Width Petal.Length
         <dbl>        <dbl>
 1         0.2          1.4
 2         0.2          1.4
 3         0.2          1.3
 4         0.2          1.5
 5         0.2          1.4
 6         0.4          1.7
 7         0.3          1.4
 8         0.2          1.5
 9         0.2          1.4
10         0.1          1.5
# ℹ 40 more rows
…
