6 Tidy data – Taller de Introducción a R
…
head(iris)  # data frame estándar

  Sepal.Length Sepal.Width Petal.Length Petal.Width Species
1          5.1         3.5          1.4         0.2  setosa
2          4.9         3.0          1.4         0.2  setosa
3          4.7         3.2          1.3         0.2  setosa
4          4.6         3.1          1.5         0.2  setosa
5          5.0         3.6          1.4         0.2  setosa
6          5.4         3.9          1.7         0.4  setosa

iris_tibble <- as_tibble(iris)
print(iris_tibble)

# A tibble: 150 × 5
   Sepal.Length Sepal.Width Petal.Length Petal.Width Species
          <dbl>       <dbl>        <dbl>       <dbl> <fct>  
 1          5.1         3.5          1.4         0.2 setosa 
 2          4.9         3            1.4         0.2 setosa 
 3          4.7         3.2          1.3         0.2 setosa 
 4          4.6         3.1          1.5         0.2 setosa 
 5          5           3.6          1.4         0.2 setosa 
 6          5.4         3.9          1.7         0.4 setosa 
 7          4.6         3.4          1.4         0.3 setosa 
 8          5           3.4          1.5         0.2 setosa 
 9          4.4         2.9          1.4         0.2 setosa 
10          4.9         3.1          1.5         0.1 setosa 
# ℹ 140 more rows
…
# Hay que conectar las filas de las tablas UN y UN2 según el valor de su región.
# Una vez tenemos la fila con todos los datos, calculamos el producto del
# porcentaje de suelo urbanizado y la superficie total.
# Como los nombres de fila del data.frame original son en principio ignorados
# por un objeto tibble, existen funciones que permiten recuperarlos:
# https://tibble.tidyverse.org/reference/rownames.html.
# Aquí usamos `rownames_to_column()`

UN_tibble |> 
  rownames_to_column(var="location") |> 
  select("location","region", "pctUrban") |> 
  inner_join(UN2, by="region") |> 
  mutate(urban_km2 = pctUrban/100 * area)

# A tibble: 199 × 6
   location    region     pctUrban population     area urban_km2
   <chr>       <fct>         <dbl>      <dbl>    <dbl>     <dbl>
 1 Afghanistan Asia             23 4601371198 31033131  7137620.
 2 Albania     Europe           53  747182751 22134900 11731497 
 3 Algeria     Africa           67 1308064195 29648481 19864482.
 4 Angola      Africa           59 1308064195 29648481 17492604.
 5 Anguilla    Caribbean       100   48000000  1139000  1139000 
 6 Argentina   Latin Amer       93  600120957 19000378 17670352.
 7 Armenia     Asia             64 4601371198 31033131 19861204.
 8 Aruba       Caribbean        47   48000000  1139000   535330 
 9 Australia   Oceania          89   42128035  8486460  7552949.
10 Austria     Europe           68  747182751 22134900 15051732 
# ℹ 189 more rows
…
