7 Importación y exportación de datos – Taller de Introducción a R
…
ℹ Use `spec()` to retrieve the full column specification for this data.
ℹ Specify the column types or set `show_col_types = FALSE` to quiet this message.

class(ACMETelephoneABT)  # Comprobamos clase del objeto

[1] "spec_tbl_df" "tbl_df"      "tbl"         "data.frame" 

dim(ACMETelephoneABT)  # Dimensiones de la tabla

[1] 10000    33

head(ACMETelephoneABT, n = 75) # 5 páginas de tabla de resultados

# A tibble: 75 × 33
   customer   age occupation   regionType marriageStatus children income
      <dbl> <dbl> <chr>        <chr>      <chr>          <lgl>     <dbl>
 1  1000004    26 crafts       town       yes            TRUE          6
 2  1000012    36 <NA>         <NA>       yes            TRUE          9
 3  1000034    74 professional town       yes            FALSE         7
 4  1000063    30 <NA>         suburban   no             FALSE         6
 5  1000085    32 <NA>         town       yes            FALSE         7
 6  1000100    40 homemaker    rural      yes            TRUE          7
 7  1000121    52 <NA>         <NA>       no             FALSE         3
 8  1000135    32 clerical     <NA>       yes            FALSE         5
 9  1000143    40 <NA>         <NA>       unknown        FALSE         5
10  1000164    42 <NA>         <NA>       yes            TRUE          4
# ℹ 65 more rows
# ℹ 26 more variables: numHandsets <dbl>, handsetAge <dbl>, smartPhone <lgl>,
#   currentHandsetPrice <dbl>, creditRating <chr>, homeOwner <lgl>,
#   creditCard <chr>, avgBill <dbl>, avgMins <dbl>, avgrecurringCharge <dbl>,
#   avgOverBundleMins <dbl>, avgRoamCalls <dbl>, callMinutesChangePct <dbl>,
#   billAmountChangePct <dbl>, avgReceivedMins <dbl>, avgOutCalls <dbl>,
#   avgInCalls <dbl>, peakOffPeakRatio <dbl>, …
…
