Introducción al lenguaje R
…
Importar datos

Otras funciones: readxl::read_excel()

data_rrhh <- readxl::read_excel("data/RRHH.xlsx")
data_rrhh

## # A tibble: 100 × 10
##    nivel_satisfaccion ultima_evaluacion numero_proyectos promedio_horas_mensua…¹
##                 <dbl>             <dbl>            <dbl>                   <dbl>
##  1               0.22              0.98                4                     185
##  2               0.89              0.65                5                     195
##  3               0.63              0.76                4                     245
##  4               0.8               0.96                3                     161
##  5               0.42              0.48                2                     155
##  6               0.77              0.82                4                     217
##  7               0.51              0.5                 5                     176
##  8               0.15              0.75                3                     259
##  9               0.98              0.99                3                     235
## 10               0.19              1                   4                     192
## # ℹ 90 more rows
## # ℹ abbreviated name: ¹​promedio_horas_mensuales
## # ℹ 6 more variables: antiguedad <dbl>, accidente <chr>, abandona <chr>,
## #   promocionado <chr>, departamento <chr>, salario <chr>
…
